[92;1m
       'g,
        `&$$@ggww,,,,
          `*&$llllllll$$@&g,,
          '$@gw,,,"**&$llllll$@y,
            "%$$$$$$@g,`*&llllll$$w
                      `"*  *$llllll$g
                             $lllllll@
             ,,,wwwwy,,       jlllllllL
        ,g@$$lllllllllll$g,    $llllllL
     ,g$llllll$&MM&$lllllll@,  |lllll$
    @$llll$F'   ,,w$llllllll$  jllllF
  ;$lllll&    g$ll&M**$llll&` ,$ll$'
  $llllll    $ll&      '"`,g@$$llllll$$@gw,
 jlllllllL   $llL       ;$lllll&M*M&$llllll$&,
 jlllllll$w  '$l@,     jllllll$       "M$lllll$w
  $llllllll$g, "&$@y   j$lllll$          "$lllll@
   '*&$lllllll$&, "&$L   "***"            '$lllll$
        ''"*M&$ll$g, *L                    $llllll@
                '*$$@,                    #lllllll$
                   '%$g                 g$lllllll$L
                     '$g            ,g$$lllllll$&`
                       jL        ,g$$ll$&&MM*"`
                        L      ,$$$M"`
                              $$F`

  $$$$$M&$$g     $$$g      $$$$$MM&$&  $$$$$MM&$&
    $ll  ]ll@   ;$&ll@      $ll$        $ll$
    lll@@$$F   ;$L jll@     $ll$M$F     $ll$M$F
    lll       ,$M**M$ll$    $ll$        $ll$
   &&&&M     &&&&   &&&&&  &&&&&F      &&&&&F
[0m
